<svg xmlns="http://www.w3.org/2000/svg" viewBox="0 0 32 32">
  <circle cx="22" cy="21.195" r="6" fill="#f00"/>
  <circle cx="16" cy="10.805" r="6" fill="#f00"/>
  <circle cx="10" cy="21.195" r="6" fill="#f00"/>
</svg>
